<?xml version="1.0" encoding="UTF-8"?>
<svg width="18px" height="24px" viewBox="0 0 18 24" version="1.1" xmlns="http://www.w3.org/2000/svg" xmlns:xlink="http://www.w3.org/1999/xlink">
    <!-- Generator: Sketch 52.5 (67469) - http://www.bohemiancoding.com/sketch -->
    <title>corner_left</title>
    <desc>Created with Sketch.</desc>
    <defs>
        <rect id="path-1" x="0" y="0" width="19" height="24"></rect>
    </defs>
    <g id="Page-1" stroke="none" stroke-width="1" fill="none" fill-rule="evenodd">
        <g id="Winnie_StyleGuide" transform="translate(-1597.000000, -927.000000)">
            <g id="Group-8" transform="translate(1596.000000, 927.000000)">
                <mask id="mask-2" fill="white">
                    <use xlink:href="#path-1"></use>
                </mask>
                <g id="Rectangle"></g>
                <path d="M725.830046,19.7261761 C726.807246,19.9008635 727.840896,19.9927643 728.876072,19.9927643 C734.523389,19.9927643 739.436089,17.2737165 742,13.2597032 C741.016697,13.494392 739.996778,13.6318634 738.941768,13.6318634 C731.687907,13.6318634 725.807923,7.77603699 725.807923,0.552332102 L725.807923,-151.404894 C725.807923,-155.599671 722.391918,-159 718.179507,-159 L9.62841651,-159 C5.41600491,-159 2,-155.599671 2,-151.404894 L2,30.4048945 C2,34.5989117 5.41600491,38 9.62841651,38 L718.179507,38 C722.391918,38 725.807923,34.5989117 725.807923,30.4048945 L725.830046,19.7261761 Z" id="Stroke-1-Copy-5" stroke="#B4B4B4" fill="#FFFFFF" mask="url(#mask-2)" transform="translate(372.000000, -60.500000) scale(-1, 1) translate(-372.000000, 60.500000) "></path>
            </g>
        </g>
    </g>
</svg>